# Blender v2.76 (sub 0) OBJ File: 'SOTC SWORD.blend'
# www.blender.org
mtllib SOTC SWORD.mtl
o Cube.002_Cube.003
v -0.015230 -6.797569 -0.395422
v -0.100303 -6.823376 -0.395422
v -0.178707 -6.865283 -0.395422
v -0.247429 -6.921682 -0.395422
v -0.303828 -6.990403 -0.395422
v -0.345735 -7.068808 -0.395422
v -0.371542 -7.153881 -0.395422
v -0.380256 -7.242354 -0.395422
v -0.371542 -7.330828 -0.395422
v -0.345735 -7.415901 -0.395422
v -0.303828 -7.494305 -0.395422
v -0.247429 -7.563027 -0.395422
v -0.178707 -7.619425 -0.395422
v -0.100303 -7.661333 -0.395422
v -0.015230 -7.687140 -0.395422
v -0.013530 -6.797569 -0.412682
v -0.096969 -6.823376 -0.429279
v -0.173866 -6.865283 -0.444575
v -0.241268 -6.921682 -0.457982
v -0.296582 -6.990403 -0.468985
v -0.337685 -7.068808 -0.477161
v -0.362996 -7.153881 -0.482195
v -0.371542 -7.242354 -0.483895
v -0.362996 -7.330828 -0.482195
v -0.337685 -7.415901 -0.477161
v -0.296582 -7.494305 -0.468985
v -0.241268 -7.563027 -0.457982
v -0.173866 -7.619425 -0.444575
v -0.096969 -7.661333 -0.429279
v -0.013530 -7.687140 -0.412682
v -0.008495 -6.797569 -0.429279
v -0.087093 -6.823376 -0.461836
v -0.159529 -6.865283 -0.491839
v -0.223019 -6.921682 -0.518138
v -0.275125 -6.990403 -0.539721
v -0.313843 -7.068808 -0.555758
v -0.337685 -7.153881 -0.565634
v -0.345735 -7.242354 -0.568969
v -0.337685 -7.330828 -0.565634
v -0.313843 -7.415901 -0.555758
v -0.275125 -7.494305 -0.539721
v -0.223019 -7.563027 -0.518138
v -0.159529 -7.619425 -0.491839
v -0.087093 -7.661333 -0.461835
v -0.008495 -7.687140 -0.429279
v -0.000319 -6.797569 -0.444575
v -0.071055 -6.823376 -0.491839
v -0.136246 -6.865283 -0.535398
v -0.193386 -6.921682 -0.573578
v -0.240280 -6.990403 -0.604911
v -0.275125 -7.068808 -0.628194
v -0.296582 -7.153881 -0.642532
v -0.303828 -7.242354 -0.647373
v -0.296582 -7.330828 -0.642532
v -0.275125 -7.415901 -0.628194
v -0.240280 -7.494305 -0.604911
v -0.193386 -7.563027 -0.573578
v -0.136246 -7.619425 -0.535398
v -0.071055 -7.661333 -0.491839
v -0.000319 -7.687140 -0.444575
v 0.010683 -6.797569 -0.457982
v -0.049473 -6.823376 -0.518138
v -0.104913 -6.865283 -0.573578
v -0.153506 -6.921682 -0.622172
v -0.193386 -6.990403 -0.662052
v -0.223019 -7.068808 -0.691685
v -0.241267 -7.153881 -0.709933
v -0.247429 -7.242354 -0.716095
v -0.241267 -7.330828 -0.709933
v -0.223019 -7.415901 -0.691685
v -0.193386 -7.494305 -0.662052
v -0.153506 -7.563027 -0.622172
v -0.104913 -7.619425 -0.573578
v -0.049473 -7.661333 -0.518138
v 0.010683 -7.687140 -0.457982
v 0.024090 -6.797569 -0.468985
v -0.023174 -6.823376 -0.539721
v -0.066733 -6.865283 -0.604911
v -0.104913 -6.921682 -0.662052
v -0.136246 -6.990403 -0.708945
v -0.159529 -7.068808 -0.743790
v -0.173866 -7.153881 -0.765248
v -0.178707 -7.242354 -0.772493
v -0.173866 -7.330828 -0.765248
v -0.159529 -7.415901 -0.743790
v -0.136246 -7.494305 -0.708945
v -0.104913 -7.563027 -0.662052
v -0.066733 -7.619425 -0.604911
v -0.023174 -7.661333 -0.539721
v 0.024090 -7.687140 -0.468985
v 0.039386 -6.797569 -0.477161
v 0.006830 -6.823376 -0.555758
v -0.023174 -6.865283 -0.628194
v -0.049473 -6.921682 -0.691685
v -0.071055 -6.990403 -0.743790
v -0.087093 -7.068808 -0.782508
v -0.096968 -7.153881 -0.806350
v -0.100303 -7.242354 -0.814401
v -0.096968 -7.330828 -0.806350
v -0.087093 -7.415901 -0.782508
v -0.071055 -7.494305 -0.743790
v -0.049473 -7.563027 -0.691685
v -0.023174 -7.619425 -0.628194
v 0.006830 -7.661333 -0.555758
v 0.039386 -7.687140 -0.477161
v 0.055983 -6.797569 -0.482195
v 0.039386 -6.823376 -0.565634
v 0.024090 -6.865283 -0.642532
v 0.010683 -6.921682 -0.709933
v -0.000319 -6.990403 -0.765248
v -0.008495 -7.068808 -0.806350
v -0.013530 -7.153881 -0.831661
v -0.015230 -7.242354 -0.840208
v -0.013530 -7.330828 -0.831661
v -0.008495 -7.415901 -0.806350
v -0.000319 -7.494305 -0.765248
v 0.010683 -7.563027 -0.709933
v 0.024090 -7.619425 -0.642532
v 0.039386 -7.661333 -0.565634
v 0.055983 -7.687140 -0.482195
v 0.073244 -6.797569 -0.483895
v 0.073244 -6.823376 -0.568969
v 0.073244 -6.865283 -0.647373
v 0.073244 -6.921682 -0.716095
v 0.073244 -6.990403 -0.772493
v 0.073244 -7.068808 -0.814401
v 0.073244 -7.153881 -0.840208
v 0.073244 -7.242354 -0.848922
v 0.073244 -7.330828 -0.840208
v 0.073244 -7.415901 -0.814401
v 0.073244 -7.494305 -0.772493
v 0.073244 -7.563027 -0.716095
v 0.073244 -7.619425 -0.647373
v 0.073244 -7.661333 -0.568969
v 0.073244 -7.687140 -0.483895
v 0.090504 -6.797569 -0.482195
v 0.107101 -6.823376 -0.565634
v 0.122397 -6.865283 -0.642532
v 0.135804 -6.921682 -0.709933
v 0.146807 -6.990403 -0.765248
v 0.154982 -7.068808 -0.806350
v 0.160017 -7.153881 -0.831661
v 0.161717 -7.242354 -0.840208
v 0.160017 -7.330828 -0.831661
v 0.154982 -7.415901 -0.806350
v 0.146807 -7.494305 -0.765248
v 0.135804 -7.563027 -0.709933
v 0.122397 -7.619425 -0.642532
v 0.107101 -7.661333 -0.565634
v 0.090504 -7.687140 -0.482195
v 0.107101 -6.797569 -0.477161
v 0.139657 -6.823376 -0.555758
v 0.169661 -6.865283 -0.628194
v 0.195960 -6.921682 -0.691685
v 0.217542 -6.990403 -0.743790
v 0.233580 -7.068808 -0.782508
v 0.243456 -7.153881 -0.806350
v 0.246790 -7.242354 -0.814401
v 0.243456 -7.330828 -0.806350
v 0.233580 -7.415901 -0.782508
v 0.217542 -7.494305 -0.743790
v 0.195960 -7.563027 -0.691685
v 0.169661 -7.619425 -0.628194
v 0.139657 -7.661333 -0.555758
v 0.107101 -7.687140 -0.477161
v 0.122397 -6.797569 -0.468985
v 0.169661 -6.823376 -0.539721
v 0.213220 -6.865283 -0.604911
v 0.251400 -6.921682 -0.662052
v 0.282733 -6.990403 -0.708945
v 0.306016 -7.068808 -0.743790
v 0.320353 -7.153881 -0.765248
v 0.325194 -7.242354 -0.772493
v 0.320353 -7.330828 -0.765248
v 0.306016 -7.415901 -0.743790
v 0.282733 -7.494305 -0.708945
v 0.251400 -7.563027 -0.662052
v 0.213220 -7.619425 -0.604911
v 0.169661 -7.661333 -0.539721
v 0.122397 -7.687140 -0.468985
v 0.135804 -6.797569 -0.457982
v 0.195960 -6.823376 -0.518138
v 0.251400 -6.865283 -0.573578
v 0.299993 -6.921682 -0.622172
v 0.339873 -6.990403 -0.662052
v 0.369506 -7.068808 -0.691685
v 0.387755 -7.153881 -0.709933
v 0.393916 -7.242354 -0.716094
v 0.387755 -7.330828 -0.709933
v 0.369506 -7.415901 -0.691685
v 0.339873 -7.494305 -0.662052
v 0.299993 -7.563027 -0.622172
v 0.251400 -7.619425 -0.573578
v 0.195960 -7.661333 -0.518138
v 0.135804 -7.687140 -0.457982
v 0.146807 -6.797569 -0.444575
v 0.217542 -6.823376 -0.491839
v 0.282733 -6.865283 -0.535398
v 0.339873 -6.921682 -0.573578
v 0.386767 -6.990403 -0.604911
v 0.421612 -7.068808 -0.628194
v 0.443069 -7.153881 -0.642532
v 0.450315 -7.242354 -0.647373
v 0.443069 -7.330828 -0.642532
v 0.421612 -7.415901 -0.628194
v 0.386767 -7.494305 -0.604911
v 0.339873 -7.563027 -0.573578
v 0.282733 -7.619425 -0.535398
v 0.217542 -7.661333 -0.491839
v 0.146807 -7.687140 -0.444575
v 0.154982 -6.797569 -0.429279
v 0.233580 -6.823376 -0.461835
v 0.306016 -6.865283 -0.491839
v 0.369506 -6.921682 -0.518138
v 0.421612 -6.990403 -0.539721
v 0.460330 -7.068808 -0.555758
v 0.484172 -7.153881 -0.565634
v 0.492223 -7.242354 -0.568969
v 0.484172 -7.330828 -0.565634
v 0.460330 -7.415901 -0.555758
v 0.421612 -7.494305 -0.539721
v 0.369506 -7.563027 -0.518138
v 0.306016 -7.619425 -0.491839
v 0.233580 -7.661333 -0.461835
v 0.154982 -7.687140 -0.429279
v 0.160017 -6.797569 -0.412682
v 0.243456 -6.823376 -0.429279
v 0.320353 -6.865283 -0.444575
v 0.387755 -6.921682 -0.457982
v 0.443069 -6.990403 -0.468985
v 0.484172 -7.068808 -0.477161
v 0.509483 -7.153881 -0.482195
v 0.518029 -7.242354 -0.483895
v 0.509483 -7.330828 -0.482195
v 0.484172 -7.415901 -0.477161
v 0.443069 -7.494305 -0.468985
v 0.387755 -7.563027 -0.457982
v 0.320353 -7.619425 -0.444575
v 0.243456 -7.661333 -0.429279
v 0.160017 -7.687140 -0.412682
v 0.161717 -6.797569 -0.395422
v 0.246790 -6.823376 -0.395422
v 0.325194 -6.865283 -0.395422
v 0.393916 -6.921682 -0.395422
v 0.450315 -6.990403 -0.395422
v 0.492223 -7.068808 -0.395422
v 0.518029 -7.153881 -0.395422
v 0.526743 -7.242354 -0.395422
v 0.518029 -7.330828 -0.395422
v 0.492223 -7.415901 -0.395422
v 0.450315 -7.494305 -0.395422
v 0.393916 -7.563027 -0.395422
v 0.325194 -7.619425 -0.395422
v 0.246790 -7.661333 -0.395422
v 0.161717 -7.687140 -0.395422
v 0.160017 -6.797569 -0.378162
v 0.243456 -6.823376 -0.361565
v 0.320353 -6.865283 -0.346269
v 0.387755 -6.921682 -0.332862
v 0.443069 -6.990403 -0.321859
v 0.484172 -7.068808 -0.313683
v 0.509483 -7.153881 -0.308649
v 0.518029 -7.242354 -0.306949
v 0.509483 -7.330828 -0.308649
v 0.484172 -7.415901 -0.313683
v 0.443069 -7.494305 -0.321859
v 0.387755 -7.563027 -0.332862
v 0.320353 -7.619425 -0.346269
v 0.243456 -7.661333 -0.361565
v 0.160017 -7.687140 -0.378162
v 0.154982 -6.797569 -0.361565
v 0.233580 -6.823376 -0.329008
v 0.306016 -6.865283 -0.299005
v 0.369506 -6.921682 -0.272706
v 0.421612 -6.990403 -0.251123
v 0.460330 -7.068808 -0.235086
v 0.484172 -7.153881 -0.225210
v 0.492222 -7.242354 -0.221875
v 0.484172 -7.330828 -0.225210
v 0.460330 -7.415901 -0.235086
v 0.421612 -7.494305 -0.251123
v 0.369506 -7.563027 -0.272706
v 0.306016 -7.619425 -0.299005
v 0.233580 -7.661333 -0.329008
v 0.154982 -7.687140 -0.361565
v 0.146807 -6.797569 -0.346269
v 0.217542 -6.823376 -0.299005
v 0.282733 -6.865283 -0.255446
v 0.339873 -6.921682 -0.217266
v 0.386767 -6.990403 -0.185932
v 0.421612 -7.068808 -0.162650
v 0.443069 -7.153881 -0.148312
v 0.450315 -7.242354 -0.143471
v 0.443069 -7.330828 -0.148312
v 0.421612 -7.415901 -0.162650
v 0.386767 -7.494305 -0.185932
v 0.339873 -7.563027 -0.217266
v 0.282733 -7.619425 -0.255446
v 0.217542 -7.661333 -0.299005
v 0.146806 -7.687140 -0.346269
v 0.135804 -6.797569 -0.332862
v 0.195960 -6.823376 -0.272706
v 0.251400 -6.865283 -0.217266
v 0.299993 -6.921682 -0.168672
v 0.339873 -6.990403 -0.128793
v 0.369506 -7.068808 -0.099159
v 0.387754 -7.153881 -0.080911
v 0.393916 -7.242354 -0.074749
v 0.387754 -7.330828 -0.080911
v 0.369506 -7.415901 -0.099159
v 0.339873 -7.494305 -0.128793
v 0.299993 -7.563027 -0.168672
v 0.251400 -7.619425 -0.217266
v 0.195960 -7.661333 -0.272706
v 0.135804 -7.687140 -0.332862
v 0.122397 -6.797569 -0.321859
v 0.169661 -6.823376 -0.251123
v 0.213220 -6.865283 -0.185932
v 0.251400 -6.921682 -0.128792
v 0.282733 -6.990403 -0.081899
v 0.306016 -7.068808 -0.047054
v 0.320353 -7.153881 -0.025596
v 0.325194 -7.242354 -0.018351
v 0.320353 -7.330828 -0.025596
v 0.306016 -7.415901 -0.047054
v 0.282733 -7.494305 -0.081899
v 0.251400 -7.563027 -0.128792
v 0.213220 -7.619425 -0.185932
v 0.169661 -7.661333 -0.251123
v 0.122397 -7.687140 -0.321859
v 0.073244 -7.695854 -0.395422
v 0.107101 -6.797569 -0.313683
v 0.139657 -6.823376 -0.235086
v 0.169661 -6.865283 -0.162650
v 0.195960 -6.921682 -0.099159
v 0.217542 -6.990403 -0.047054
v 0.233580 -7.068808 -0.008336
v 0.243456 -7.153881 0.015506
v 0.246790 -7.242354 0.023557
v 0.243456 -7.330828 0.015506
v 0.233580 -7.415901 -0.008336
v 0.217542 -7.494305 -0.047054
v 0.195960 -7.563027 -0.099159
v 0.169661 -7.619425 -0.162650
v 0.139657 -7.661333 -0.235086
v 0.107101 -7.687140 -0.313683
v 0.090504 -6.797569 -0.308649
v 0.107101 -6.823376 -0.225210
v 0.122397 -6.865283 -0.148312
v 0.135804 -6.921682 -0.080911
v 0.146806 -6.990403 -0.025596
v 0.154982 -7.068808 0.015506
v 0.160017 -7.153881 0.040817
v 0.161717 -7.242354 0.049364
v 0.160017 -7.330828 0.040817
v 0.154982 -7.415901 0.015506
v 0.146806 -7.494305 -0.025596
v 0.135804 -7.563027 -0.080911
v 0.122397 -7.619425 -0.148312
v 0.107101 -7.661333 -0.225210
v 0.090504 -7.687140 -0.308649
v 0.073244 -6.797569 -0.306949
v 0.073244 -6.823376 -0.221875
v 0.073244 -6.865283 -0.143471
v 0.073244 -6.921682 -0.074749
v 0.073244 -6.990403 -0.018351
v 0.073244 -7.068808 0.023557
v 0.073243 -7.153881 0.049363
v 0.073244 -7.242354 0.058077
v 0.073243 -7.330828 0.049363
v 0.073244 -7.415901 0.023557
v 0.073244 -7.494305 -0.018351
v 0.073244 -7.563027 -0.074749
v 0.073244 -7.619425 -0.143471
v 0.073244 -7.661333 -0.221875
v 0.073244 -7.687140 -0.306949
v 0.055983 -6.797569 -0.308649
v 0.039386 -6.823376 -0.225210
v 0.024090 -6.865283 -0.148312
v 0.010683 -6.921682 -0.080911
v -0.000319 -6.990403 -0.025596
v -0.008495 -7.068808 0.015506
v -0.013530 -7.153881 0.040817
v -0.015230 -7.242354 0.049364
v -0.013530 -7.330828 0.040817
v -0.008495 -7.415901 0.015506
v -0.000319 -7.494305 -0.025596
v 0.010683 -7.563027 -0.080911
v 0.024090 -7.619425 -0.148312
v 0.039386 -7.661333 -0.225210
v 0.055983 -7.687140 -0.308649
v 0.039386 -6.797569 -0.313683
v 0.006830 -6.823376 -0.235086
v -0.023174 -6.865283 -0.162650
v -0.049473 -6.921682 -0.099159
v -0.071055 -6.990403 -0.047054
v -0.087093 -7.068808 -0.008336
v -0.096969 -7.153881 0.015506
v -0.100303 -7.242354 0.023557
v -0.096969 -7.330828 0.015506
v -0.087093 -7.415901 -0.008336
v -0.071055 -7.494305 -0.047054
v -0.049473 -7.563027 -0.099159
v -0.023174 -7.619425 -0.162650
v 0.006830 -7.661333 -0.235086
v 0.039386 -7.687140 -0.313683
v 0.024090 -6.797569 -0.321859
v -0.023174 -6.823376 -0.251123
v -0.066733 -6.865283 -0.185933
v -0.104913 -6.921682 -0.128793
v -0.136246 -6.990403 -0.081899
v -0.159529 -7.068808 -0.047054
v -0.173866 -7.153881 -0.025596
v -0.178707 -7.242354 -0.018351
v -0.173866 -7.330828 -0.025596
v -0.159529 -7.415901 -0.047054
v -0.136246 -7.494305 -0.081899
v -0.104913 -7.563027 -0.128793
v -0.066733 -7.619425 -0.185933
v -0.023174 -7.661333 -0.251123
v 0.024090 -7.687140 -0.321859
v 0.010683 -6.797569 -0.332862
v -0.049472 -6.823376 -0.272706
v -0.104913 -6.865283 -0.217266
v -0.153506 -6.921682 -0.168672
v -0.193386 -6.990403 -0.128793
v -0.223019 -7.068808 -0.099159
v -0.241267 -7.153881 -0.080911
v -0.247429 -7.242354 -0.074750
v -0.241267 -7.330828 -0.080911
v -0.223019 -7.415901 -0.099159
v -0.193386 -7.494305 -0.128793
v -0.153506 -7.563027 -0.168672
v -0.104913 -7.619425 -0.217266
v -0.049472 -7.661333 -0.272706
v 0.010684 -7.687140 -0.332862
v -0.000319 -6.797569 -0.346269
v -0.071055 -6.823376 -0.299005
v -0.136246 -6.865283 -0.255446
v -0.193386 -6.921682 -0.217266
v -0.240279 -6.990403 -0.185933
v -0.275125 -7.068808 -0.162650
v -0.296582 -7.153881 -0.148313
v -0.303827 -7.242354 -0.143471
v -0.296582 -7.330828 -0.148313
v -0.275125 -7.415901 -0.162650
v -0.240279 -7.494305 -0.185933
v -0.193386 -7.563027 -0.217266
v -0.136246 -7.619425 -0.255446
v -0.071055 -7.661333 -0.299005
v -0.000319 -7.687140 -0.346269
v 0.073243 -6.788855 -0.395422
v -0.008495 -6.797569 -0.361565
v -0.087093 -6.823376 -0.329009
v -0.159529 -6.865283 -0.299005
v -0.223019 -6.921682 -0.272706
v -0.275124 -6.990403 -0.251123
v -0.313842 -7.068808 -0.235086
v -0.337685 -7.153881 -0.225210
v -0.345735 -7.242354 -0.221875
v -0.337685 -7.330828 -0.225210
v -0.313842 -7.415901 -0.235086
v -0.275124 -7.494305 -0.251123
v -0.223019 -7.563027 -0.272706
v -0.159528 -7.619425 -0.299005
v -0.087093 -7.661333 -0.329009
v -0.008495 -7.687140 -0.361565
v -0.013530 -6.797569 -0.378162
v -0.096968 -6.823376 -0.361565
v -0.173866 -6.865283 -0.346269
v -0.241267 -6.921682 -0.332862
v -0.296582 -6.990403 -0.321859
v -0.337685 -7.068808 -0.313683
v -0.362995 -7.153881 -0.308649
v -0.371542 -7.242354 -0.306949
v -0.362995 -7.330828 -0.308649
v -0.337685 -7.415901 -0.313683
v -0.296582 -7.494305 -0.321859
v -0.241267 -7.563027 -0.332862
v -0.173866 -7.619425 -0.346269
v -0.096968 -7.661333 -0.361565
v -0.013530 -7.687140 -0.378162
vn -0.833300 0.552800 0.000000
vn -0.710100 0.704000 0.000000
vn -0.696500 0.704000 -0.138500
vn -0.817300 0.552800 -0.162600
vn -0.559800 -0.828600 0.000000
vn -0.710100 -0.704000 0.000000
vn -0.696500 -0.704000 -0.138500
vn -0.549000 -0.828600 -0.109200
vn -0.924700 0.380500 0.000000
vn -0.907000 0.380500 -0.180400
vn -0.387900 -0.921700 0.000000
vn -0.380400 -0.921700 -0.075700
vn -0.981000 0.193900 0.000000
vn -0.962200 0.193900 -0.191400
vn -0.201000 -0.979600 0.000000
vn -0.197100 -0.979600 -0.039200
vn -1.000000 0.000000 0.000000
vn -0.980800 0.000000 -0.195100
vn -0.981000 -0.193900 0.000000
vn -0.962200 -0.193900 -0.191400
vn -0.387900 0.921700 0.000000
vn -0.201000 0.979600 0.000000
vn -0.197100 0.979600 -0.039200
vn -0.380400 0.921700 -0.075700
vn -0.924700 -0.380500 0.000000
vn -0.907000 -0.380500 -0.180400
vn -0.559800 0.828600 0.000000
vn -0.549000 0.828600 -0.109200
vn -0.833300 -0.552800 0.000000
vn -0.817300 -0.552800 -0.162600
vn -0.854400 -0.380500 -0.353900
vn -0.769900 -0.552800 -0.318900
vn -0.517100 0.828600 -0.214200
vn -0.656100 0.704000 -0.271700
vn -0.656100 -0.704000 -0.271700
vn -0.769900 0.552800 -0.318900
vn -0.517100 -0.828600 -0.214200
vn -0.854400 0.380500 -0.353900
vn -0.358300 -0.921700 -0.148400
vn -0.906300 0.193900 -0.375400
vn -0.185600 -0.979600 -0.076900
vn -0.923900 0.000000 -0.382700
vn -0.906300 -0.193900 -0.375400
vn -0.185600 0.979600 -0.076900
vn -0.358300 0.921700 -0.148400
vn -0.322500 -0.921700 -0.215500
vn -0.167100 -0.979600 -0.111600
vn -0.815700 0.193900 -0.545000
vn -0.831400 0.000000 -0.555600
vn -0.815700 -0.193900 -0.545000
vn -0.167100 0.979600 -0.111600
vn -0.322500 0.921700 -0.215500
vn -0.768900 -0.380500 -0.513700
vn -0.465400 0.828600 -0.311000
vn -0.692900 -0.552800 -0.463000
vn -0.590400 0.704000 -0.394500
vn -0.590400 -0.704000 -0.394500
vn -0.692900 0.552800 -0.463000
vn -0.465400 -0.828600 -0.311000
vn -0.768900 0.380500 -0.513700
vn -0.589300 -0.552800 -0.589300
vn -0.502100 -0.704000 -0.502100
vn -0.502100 0.704000 -0.502100
vn -0.589300 0.552800 -0.589300
vn -0.395800 -0.828600 -0.395800
vn -0.653900 0.380500 -0.653900
vn -0.274300 -0.921700 -0.274300
vn -0.693700 0.193900 -0.693700
vn -0.142100 -0.979600 -0.142100
vn -0.707100 0.000000 -0.707100
vn -0.693700 -0.193900 -0.693700
vn -0.142100 0.979600 -0.142100
vn -0.274300 0.921700 -0.274300
vn -0.653900 -0.380500 -0.653900
vn -0.395800 0.828600 -0.395800
vn -0.555600 0.000000 -0.831400
vn -0.545000 -0.193900 -0.815700
vn -0.111600 0.979600 -0.167100
vn -0.215500 0.921700 -0.322500
vn -0.513700 -0.380500 -0.768900
vn -0.311000 0.828600 -0.465400
vn -0.463000 -0.552800 -0.692900
vn -0.394500 0.704000 -0.590400
vn -0.394500 -0.704000 -0.590400
vn -0.463000 0.552800 -0.692900
vn -0.311000 -0.828600 -0.465400
vn -0.513700 0.380500 -0.768900
vn -0.215500 -0.921700 -0.322500
vn -0.545000 0.193900 -0.815700
vn -0.111600 -0.979600 -0.167100
vn -0.271700 0.704000 -0.656100
vn -0.318900 0.552800 -0.769900
vn -0.271700 -0.704000 -0.656100
vn -0.214200 -0.828600 -0.517100
vn -0.353900 0.380500 -0.854400
vn -0.148400 -0.921700 -0.358300
vn -0.375400 0.193900 -0.906300
vn -0.076900 -0.979600 -0.185600
vn -0.382700 0.000000 -0.923900
vn -0.375400 -0.193900 -0.906300
vn -0.076900 0.979600 -0.185600
vn -0.148400 0.921700 -0.358300
vn -0.353900 -0.380500 -0.854400
vn -0.214200 0.828600 -0.517100
vn -0.318900 -0.552800 -0.769900
vn -0.195100 0.000000 -0.980800
vn -0.191400 -0.193900 -0.962200
vn -0.039200 0.979600 -0.197100
vn -0.075700 0.921700 -0.380400
vn -0.180400 -0.380500 -0.907000
vn -0.109200 0.828600 -0.549000
vn -0.162600 -0.552800 -0.817300
vn -0.138500 0.704000 -0.696500
vn -0.138500 -0.704000 -0.696500
vn -0.162600 0.552800 -0.817300
vn -0.109200 -0.828600 -0.549000
vn -0.180400 0.380500 -0.907000
vn -0.075700 -0.921700 -0.380400
vn -0.191400 0.193900 -0.962200
vn -0.039200 -0.979600 -0.197100
vn 0.000000 -0.704000 -0.710100
vn 0.000000 -0.828600 -0.559800
vn 0.000000 0.552800 -0.833300
vn 0.000000 0.380500 -0.924700
vn 0.000000 -0.921700 -0.387900
vn 0.000000 0.193900 -0.981000
vn 0.000000 -0.979600 -0.201000
vn 0.000000 0.000000 -1.000000
vn 0.000000 -0.193900 -0.981000
vn 0.000000 0.979600 -0.201000
vn 0.000000 0.921700 -0.387900
vn 0.000000 -0.380500 -0.924700
vn 0.000000 0.828600 -0.559800
vn 0.000000 -0.552800 -0.833300
vn 0.000000 0.704000 -0.710100
vn 0.039200 0.979600 -0.197100
vn 0.075700 0.921700 -0.380400
vn 0.191400 -0.193900 -0.962200
vn 0.180400 -0.380500 -0.907000
vn 0.109200 0.828600 -0.549000
vn 0.162600 -0.552800 -0.817300
vn 0.138500 0.704000 -0.696500
vn 0.138500 -0.704000 -0.696500
vn 0.162600 0.552800 -0.817300
vn 0.109200 -0.828600 -0.549000
vn 0.180400 0.380500 -0.907000
vn 0.075700 -0.921700 -0.380400
vn 0.191400 0.193900 -0.962200
vn 0.039200 -0.979600 -0.197100
vn 0.195100 0.000000 -0.980800
vn 0.318900 0.552800 -0.769900
vn 0.353900 0.380500 -0.854400
vn 0.214200 -0.828600 -0.517100
vn 0.148400 -0.921700 -0.358300
vn 0.375400 0.193900 -0.906300
vn 0.076900 -0.979600 -0.185600
vn 0.382700 0.000000 -0.923900
vn 0.375400 -0.193900 -0.906300
vn 0.076900 0.979600 -0.185600
vn 0.148400 0.921700 -0.358300
vn 0.353900 -0.380500 -0.854400
vn 0.214200 0.828600 -0.517100
vn 0.318900 -0.552800 -0.769900
vn 0.271700 0.704000 -0.656100
vn 0.271700 -0.704000 -0.656100
vn 0.545000 -0.193900 -0.815700
vn 0.513700 -0.380500 -0.768900
vn 0.215500 0.921700 -0.322500
vn 0.311000 0.828600 -0.465400
vn 0.463000 -0.552800 -0.692900
vn 0.394500 0.704000 -0.590400
vn 0.394500 -0.704000 -0.590400
vn 0.463000 0.552800 -0.692900
vn 0.311000 -0.828600 -0.465400
vn 0.513700 0.380500 -0.768900
vn 0.215500 -0.921700 -0.322500
vn 0.545000 0.193900 -0.815700
vn 0.111600 -0.979600 -0.167100
vn 0.555600 0.000000 -0.831400
vn 0.111600 0.979600 -0.167100
vn 0.395800 -0.828600 -0.395800
vn 0.274300 -0.921700 -0.274300
vn 0.653900 0.380500 -0.653900
vn 0.693700 0.193900 -0.693700
vn 0.142100 -0.979600 -0.142100
vn 0.707100 0.000000 -0.707100
vn 0.693700 -0.193900 -0.693700
vn 0.142100 0.979600 -0.142100
vn 0.274300 0.921700 -0.274300
vn 0.653900 -0.380500 -0.653900
vn 0.395800 0.828600 -0.395800
vn 0.589300 -0.552800 -0.589300
vn 0.502100 0.704000 -0.502100
vn 0.502100 -0.704000 -0.502100
vn 0.589300 0.552800 -0.589300
vn 0.768900 -0.380500 -0.513700
vn 0.692900 -0.552800 -0.463000
vn 0.465400 0.828600 -0.311000
vn 0.590400 0.704000 -0.394500
vn 0.590400 -0.704000 -0.394500
vn 0.692900 0.552800 -0.463000
vn 0.465400 -0.828600 -0.311000
vn 0.768900 0.380500 -0.513700
vn 0.322500 -0.921700 -0.215500
vn 0.815700 0.193900 -0.545000
vn 0.167100 -0.979600 -0.111600
vn 0.831400 0.000000 -0.555600
vn 0.815700 -0.193900 -0.545000
vn 0.167100 0.979600 -0.111600
vn 0.322500 0.921700 -0.215500
vn 0.358300 -0.921700 -0.148400
vn 0.185600 -0.979600 -0.076900
vn 0.906300 0.193900 -0.375400
vn 0.923900 0.000000 -0.382700
vn 0.906300 -0.193900 -0.375400
vn 0.185600 0.979600 -0.076900
vn 0.358300 0.921700 -0.148400
vn 0.854400 -0.380500 -0.353900
vn 0.517100 0.828600 -0.214200
vn 0.769900 -0.552800 -0.318900
vn 0.656100 0.704000 -0.271700
vn 0.656100 -0.704000 -0.271700
vn 0.769900 0.552800 -0.318900
vn 0.517100 -0.828600 -0.214200
vn 0.854400 0.380500 -0.353900
vn 0.549000 0.828600 -0.109200
vn 0.696500 0.704000 -0.138500
vn 0.817300 -0.552800 -0.162600
vn 0.696500 -0.704000 -0.138500
vn 0.817300 0.552800 -0.162600
vn 0.549000 -0.828600 -0.109200
vn 0.907000 0.380500 -0.180400
vn 0.380400 -0.921700 -0.075700
vn 0.962200 0.193900 -0.191400
vn 0.197100 -0.979600 -0.039200
vn 0.980800 0.000000 -0.195100
vn 0.962200 -0.193900 -0.191400
vn 0.197100 0.979600 -0.039200
vn 0.380400 0.921700 -0.075700
vn 0.907000 -0.380500 -0.180400
vn 0.981000 0.193900 0.000000
vn 1.000000 0.000000 0.000000
vn 0.981000 -0.193900 0.000000
vn 0.201000 0.979600 0.000000
vn 0.387900 0.921700 0.000000
vn 0.924700 -0.380500 0.000000
vn 0.559800 0.828600 0.000000
vn 0.833300 -0.552800 0.000000
vn 0.710100 0.704000 0.000000
vn 0.710100 -0.704000 0.000000
vn 0.833300 0.552800 0.000000
vn 0.559800 -0.828600 0.000000
vn 0.924700 0.380500 0.000000
vn 0.387900 -0.921700 0.000000
vn 0.201000 -0.979600 0.000000
vn 0.817300 -0.552800 0.162600
vn 0.696500 -0.704000 0.138500
vn 0.696500 0.704000 0.138500
vn 0.817300 0.552800 0.162600
vn 0.549000 -0.828600 0.109200
vn 0.907000 0.380500 0.180400
vn 0.380400 -0.921700 0.075700
vn 0.962200 0.193900 0.191400
vn 0.197100 -0.979600 0.039200
vn 0.980800 0.000000 0.195100
vn 0.962200 -0.193900 0.191400
vn 0.197100 0.979600 0.039200
vn 0.380400 0.921700 0.075700
vn 0.907000 -0.380500 0.180400
vn 0.549000 0.828600 0.109200
vn 0.923900 0.000000 0.382700
vn 0.906300 -0.193900 0.375400
vn 0.185600 0.979600 0.076900
vn 0.358300 0.921700 0.148400
vn 0.854400 -0.380500 0.353900
vn 0.517100 0.828600 0.214200
vn 0.769900 -0.552800 0.318900
vn 0.656100 0.704000 0.271700
vn 0.656100 -0.704000 0.271700
vn 0.769900 0.552800 0.318900
vn 0.517100 -0.828600 0.214200
vn 0.854400 0.380500 0.353900
vn 0.358300 -0.921700 0.148400
vn 0.906300 0.193900 0.375400
vn 0.185600 -0.979600 0.076900
vn 0.590400 0.704000 0.394500
vn 0.692900 0.552800 0.463000
vn 0.590400 -0.704000 0.394500
vn 0.465400 -0.828600 0.311000
vn 0.768900 0.380500 0.513700
vn 0.322500 -0.921700 0.215500
vn 0.815700 0.193900 0.545000
vn 0.167100 -0.979600 0.111600
vn 0.831400 0.000000 0.555600
vn 0.815700 -0.193900 0.545000
vn 0.167100 0.979600 0.111600
vn 0.322500 0.921700 0.215500
vn 0.768900 -0.380500 0.513700
vn 0.465400 0.828600 0.311000
vn 0.692900 -0.552800 0.463000
vn 0.707100 0.000000 0.707100
vn 0.693700 -0.193900 0.693700
vn 0.142100 0.979600 0.142100
vn 0.274300 0.921700 0.274300
vn 0.653900 -0.380500 0.653900
vn 0.395800 0.828600 0.395800
vn 0.589300 -0.552800 0.589300
vn 0.502100 0.704000 0.502100
vn 0.502100 -0.704000 0.502100
vn 0.589300 0.552800 0.589300
vn 0.395800 -0.828600 0.395800
vn 0.653900 0.380500 0.653900
vn 0.274300 -0.921700 0.274300
vn 0.693700 0.193900 0.693700
vn 0.142100 -0.979600 0.142100
vn 0.394500 -0.704000 0.590400
vn 0.311000 -0.828600 0.465400
vn 0.463000 0.552800 0.692900
vn 0.513700 0.380500 0.768900
vn 0.215500 -0.921700 0.322500
vn 0.545000 0.193900 0.815700
vn 0.111600 -0.979600 0.167100
vn 0.555600 0.000000 0.831400
vn 0.545000 -0.193900 0.815700
vn 0.111600 0.979600 0.167100
vn 0.215500 0.921700 0.322500
vn 0.513700 -0.380500 0.768900
vn 0.311000 0.828600 0.465400
vn 0.463000 -0.552800 0.692900
vn 0.394500 0.704000 0.590400
vn 0.375400 -0.193900 0.906300
vn 0.353900 -0.380500 0.854400
vn 0.148400 0.921700 0.358300
vn 0.214200 0.828600 0.517100
vn 0.318900 -0.552800 0.769900
vn 0.271700 0.704000 0.656100
vn 0.271700 -0.704000 0.656100
vn 0.318900 0.552800 0.769900
vn 0.214200 -0.828600 0.517100
vn 0.353900 0.380500 0.854400
vn 0.148400 -0.921700 0.358300
vn 0.375400 0.193900 0.906300
vn 0.076900 -0.979600 0.185600
vn 0.382700 0.000000 0.923900
vn 0.076900 0.979600 0.185600
vn 0.109200 -0.828600 0.549000
vn 0.075700 -0.921700 0.380400
vn 0.180400 0.380500 0.907000
vn 0.191400 0.193900 0.962200
vn 0.039200 -0.979600 0.197100
vn 0.195100 0.000000 0.980800
vn 0.191400 -0.193900 0.962200
vn 0.039200 0.979600 0.197100
vn 0.075700 0.921700 0.380400
vn 0.180400 -0.380500 0.907000
vn 0.109200 0.828600 0.549000
vn 0.162600 -0.552800 0.817300
vn 0.138500 0.704000 0.696500
vn 0.138500 -0.704000 0.696500
vn 0.162600 0.552800 0.817300
vn 0.000000 0.921700 0.387900
vn 0.000000 0.828600 0.559800
vn 0.000000 -0.380500 0.924700
vn 0.000000 -0.552800 0.833300
vn 0.000000 0.704000 0.710100
vn 0.000000 -0.704000 0.710100
vn 0.000000 0.552800 0.833300
vn 0.000000 -0.828600 0.559800
vn 0.000000 0.380500 0.924700
vn 0.000000 -0.921700 0.387900
vn 0.000000 0.193900 0.981000
vn 0.000000 -0.979600 0.201000
vn 0.000000 0.000000 1.000000
vn 0.000000 -0.193900 0.981000
vn 0.000000 0.979600 0.201000
vn -0.180400 0.380500 0.907000
vn -0.191400 0.193900 0.962200
vn -0.075700 -0.921700 0.380400
vn -0.039200 -0.979600 0.197100
vn -0.195100 0.000000 0.980800
vn -0.191400 -0.193900 0.962200
vn -0.039200 0.979600 0.197100
vn -0.075700 0.921700 0.380400
vn -0.180400 -0.380500 0.907000
vn -0.109200 0.828600 0.549000
vn -0.162600 -0.552800 0.817300
vn -0.138500 0.704000 0.696500
vn -0.138500 -0.704000 0.696500
vn -0.162600 0.552800 0.817300
vn -0.109200 -0.828600 0.549000
vn -0.353900 -0.380500 0.854400
vn -0.318900 -0.552800 0.769900
vn -0.214200 0.828600 0.517100
vn -0.271700 0.704000 0.656100
vn -0.271700 -0.704000 0.656100
vn -0.318900 0.552800 0.769900
vn -0.214200 -0.828600 0.517100
vn -0.353900 0.380500 0.854400
vn -0.148400 -0.921700 0.358300
vn -0.375400 0.193900 0.906300
vn -0.076900 -0.979600 0.185600
vn -0.382700 0.000000 0.923900
vn -0.375400 -0.193900 0.906300
vn -0.076900 0.979600 0.185600
vn -0.148400 0.921700 0.358300
vn -0.215500 -0.921700 0.322500
vn -0.111600 -0.979600 0.167100
vn -0.545000 0.193900 0.815700
vn -0.555600 0.000000 0.831400
vn -0.545000 -0.193900 0.815700
vn -0.111600 0.979600 0.167100
vn -0.215500 0.921700 0.322500
vn -0.513700 -0.380500 0.768900
vn -0.311000 0.828600 0.465400
vn -0.463000 -0.552800 0.692900
vn -0.394500 0.704000 0.590400
vn -0.394500 -0.704000 0.590400
vn -0.463000 0.552800 0.692900
vn -0.311000 -0.828600 0.465400
vn -0.513700 0.380500 0.768900
vn -0.395800 0.828600 0.395800
vn -0.502100 0.704000 0.502100
vn -0.589300 -0.552800 0.589300
vn -0.502100 -0.704000 0.502100
vn -0.589300 0.552800 0.589300
vn -0.395800 -0.828600 0.395800
vn -0.653900 0.380500 0.653900
vn -0.274300 -0.921700 0.274300
vn -0.693700 0.193900 0.693700
vn -0.142100 -0.979600 0.142100
vn -0.707100 0.000000 0.707100
vn -0.693700 -0.193900 0.693700
vn -0.142100 0.979600 0.142100
vn -0.274300 0.921700 0.274300
vn -0.653900 -0.380500 0.653900
vn -0.815700 0.193900 0.545000
vn -0.831400 0.000000 0.555600
vn -0.815700 -0.193900 0.545000
vn -0.167100 0.979600 0.111600
vn -0.322500 0.921700 0.215500
vn -0.768900 -0.380500 0.513700
vn -0.465400 0.828600 0.311000
vn -0.692900 -0.552800 0.463000
vn -0.590400 0.704000 0.394500
vn -0.590400 -0.704000 0.394500
vn -0.692900 0.552800 0.463000
vn -0.465400 -0.828600 0.311000
vn -0.768900 0.380500 0.513700
vn -0.322500 -0.921700 0.215500
vn -0.167100 -0.979600 0.111600
vn -0.769900 -0.552800 0.318900
vn -0.656100 -0.704000 0.271700
vn -0.656100 0.704000 0.271700
vn -0.769900 0.552800 0.318900
vn -0.517100 -0.828600 0.214200
vn -0.854400 0.380500 0.353900
vn -0.358300 -0.921700 0.148400
vn -0.906300 0.193900 0.375400
vn -0.185600 -0.979600 0.076900
vn -0.923900 0.000000 0.382700
vn -0.906300 -0.193900 0.375400
vn -0.185600 0.979600 0.076900
vn -0.358300 0.921700 0.148400
vn -0.854400 -0.380500 0.353900
vn -0.517100 0.828600 0.214200
vn -0.980800 0.000000 0.195100
vn -0.962200 -0.193900 0.191400
vn -0.197100 0.979600 0.039200
vn -0.380400 0.921700 0.075700
vn -0.907000 -0.380500 0.180400
vn -0.549000 0.828600 0.109200
vn -0.817300 -0.552800 0.162600
vn -0.696500 0.704000 0.138500
vn -0.696500 -0.704000 0.138500
vn -0.817300 0.552800 0.162600
vn -0.549000 -0.828600 0.109200
vn -0.907000 0.380500 0.180400
vn -0.380400 -0.921700 0.075700
vn -0.962200 0.193900 0.191400
vn -0.197100 -0.979600 0.039200
vn 0.000000 1.000000 0.000000
vn 0.000000 -1.000000 0.000000
usemtl Material.001
s 1
f 5//1 4//2 19//3 20//4
f 13//5 12//6 27//7 28//8
f 6//9 5//1 20//4 21//10
f 14//11 13//5 28//8 29//12
f 7//13 6//9 21//10 22//14
f 15//15 14//11 29//12 30//16
f 8//17 7//13 22//14 23//18
f 9//19 8//17 23//18 24//20
f 2//21 1//22 16//23 17//24
f 10//25 9//19 24//20 25//26
f 3//27 2//21 17//24 18//28
f 11//29 10//25 25//26 26//30
f 4//2 3//27 18//28 19//3
f 12//6 11//29 26//30 27//7
f 26//30 25//26 40//31 41//32
f 19//3 18//28 33//33 34//34
f 27//7 26//30 41//32 42//35
f 20//4 19//3 34//34 35//36
f 28//8 27//7 42//35 43//37
f 21//10 20//4 35//36 36//38
f 29//12 28//8 43//37 44//39
f 22//14 21//10 36//38 37//40
f 30//16 29//12 44//39 45//41
f 23//18 22//14 37//40 38//42
f 24//20 23//18 38//42 39//43
f 17//24 16//23 31//44 32//45
f 25//26 24//20 39//43 40//31
f 18//28 17//24 32//45 33//33
f 45//41 44//39 59//46 60//47
f 38//42 37//40 52//48 53//49
f 39//43 38//42 53//49 54//50
f 32//45 31//44 46//51 47//52
f 40//31 39//43 54//50 55//53
f 33//33 32//45 47//52 48//54
f 41//32 40//31 55//53 56//55
f 34//34 33//33 48//54 49//56
f 42//35 41//32 56//55 57//57
f 35//36 34//34 49//56 50//58
f 43//37 42//35 57//57 58//59
f 36//38 35//36 50//58 51//60
f 44//39 43//37 58//59 59//46
f 37//40 36//38 51//60 52//48
f 57//57 56//55 71//61 72//62
f 50//58 49//56 64//63 65//64
f 58//59 57//57 72//62 73//65
f 51//60 50//58 65//64 66//66
f 59//46 58//59 73//65 74//67
f 52//48 51//60 66//66 67//68
f 60//47 59//46 74//67 75//69
f 53//49 52//48 67//68 68//70
f 54//50 53//49 68//70 69//71
f 47//52 46//51 61//72 62//73
f 55//53 54//50 69//71 70//74
f 48//54 47//52 62//73 63//75
f 56//55 55//53 70//74 71//61
f 49//56 48//54 63//75 64//63
f 69//71 68//70 83//76 84//77
f 62//73 61//72 76//78 77//79
f 70//74 69//71 84//77 85//80
f 63//75 62//73 77//79 78//81
f 71//61 70//74 85//80 86//82
f 64//63 63//75 78//81 79//83
f 72//62 71//61 86//82 87//84
f 65//64 64//63 79//83 80//85
f 73//65 72//62 87//84 88//86
f 66//66 65//64 80//85 81//87
f 74//67 73//65 88//86 89//88
f 67//68 66//66 81//87 82//89
f 75//69 74//67 89//88 90//90
f 68//70 67//68 82//89 83//76
f 80//85 79//83 94//91 95//92
f 88//86 87//84 102//93 103//94
f 81//87 80//85 95//92 96//95
f 89//88 88//86 103//94 104//96
f 82//89 81//87 96//95 97//97
f 90//90 89//88 104//96 105//98
f 83//76 82//89 97//97 98//99
f 84//77 83//76 98//99 99//100
f 77//79 76//78 91//101 92//102
f 85//80 84//77 99//100 100//103
f 78//81 77//79 92//102 93//104
f 86//82 85//80 100//103 101//105
f 79//83 78//81 93//104 94//91
f 87//84 86//82 101//105 102//93
f 99//100 98//99 113//106 114//107
f 92//102 91//101 106//108 107//109
f 100//103 99//100 114//107 115//110
f 93//104 92//102 107//109 108//111
f 101//105 100//103 115//110 116//112
f 94//91 93//104 108//111 109//113
f 102//93 101//105 116//112 117//114
f 95//92 94//91 109//113 110//115
f 103//94 102//93 117//114 118//116
f 96//95 95//92 110//115 111//117
f 104//96 103//94 118//116 119//118
f 97//97 96//95 111//117 112//119
f 105//98 104//96 119//118 120//120
f 98//99 97//97 112//119 113//106
f 118//116 117//114 132//121 133//122
f 111//117 110//115 125//123 126//124
f 119//118 118//116 133//122 134//125
f 112//119 111//117 126//124 127//126
f 120//120 119//118 134//125 135//127
f 113//106 112//119 127//126 128//128
f 114//107 113//106 128//128 129//129
f 107//109 106//108 121//130 122//131
f 115//110 114//107 129//129 130//132
f 108//111 107//109 122//131 123//133
f 116//112 115//110 130//132 131//134
f 109//113 108//111 123//133 124//135
f 117//114 116//112 131//134 132//121
f 110//115 109//113 124//135 125//123
f 122//131 121//130 136//136 137//137
f 130//132 129//129 144//138 145//139
f 123//133 122//131 137//137 138//140
f 131//134 130//132 145//139 146//141
f 124//135 123//133 138//140 139//142
f 132//121 131//134 146//141 147//143
f 125//123 124//135 139//142 140//144
f 133//122 132//121 147//143 148//145
f 126//124 125//123 140//144 141//146
f 134//125 133//122 148//145 149//147
f 127//126 126//124 141//146 142//148
f 135//127 134//125 149//147 150//149
f 128//128 127//126 142//148 143//150
f 129//129 128//128 143//150 144//138
f 141//146 140//144 155//151 156//152
f 149//147 148//145 163//153 164//154
f 142//148 141//146 156//152 157//155
f 150//149 149//147 164//154 165//156
f 143//150 142//148 157//155 158//157
f 144//138 143//150 158//157 159//158
f 137//137 136//136 151//159 152//160
f 145//139 144//138 159//158 160//161
f 138//140 137//137 152//160 153//162
f 146//141 145//139 160//161 161//163
f 139//142 138//140 153//162 154//164
f 147//143 146//141 161//163 162//165
f 140//144 139//142 154//164 155//151
f 148//145 147//143 162//165 163//153
f 160//161 159//158 174//166 175//167
f 153//162 152//160 167//168 168//169
f 161//163 160//161 175//167 176//170
f 154//164 153//162 168//169 169//171
f 162//165 161//163 176//170 177//172
f 155//151 154//164 169//171 170//173
f 163//153 162//165 177//172 178//174
f 156//152 155//151 170//173 171//175
f 164//154 163//153 178//174 179//176
f 157//155 156//152 171//175 172//177
f 165//156 164//154 179//176 180//178
f 158//157 157//155 172//177 173//179
f 159//158 158//157 173//179 174//166
f 152//160 151//159 166//180 167//168
f 179//176 178//174 193//181 194//182
f 172//177 171//175 186//183 187//184
f 180//178 179//176 194//182 195//185
f 173//179 172//177 187//184 188//186
f 174//166 173//179 188//186 189//187
f 167//168 166//180 181//188 182//189
f 175//167 174//166 189//187 190//190
f 168//169 167//168 182//189 183//191
f 176//170 175//167 190//190 191//192
f 169//171 168//169 183//191 184//193
f 177//172 176//170 191//192 192//194
f 170//173 169//171 184//193 185//195
f 178//174 177//172 192//194 193//181
f 171//175 170//173 185//195 186//183
f 191//192 190//190 205//196 206//197
f 184//193 183//191 198//198 199//199
f 192//194 191//192 206//197 207//200
f 185//195 184//193 199//199 200//201
f 193//181 192//194 207//200 208//202
f 186//183 185//195 200//201 201//203
f 194//182 193//181 208//202 209//204
f 187//184 186//183 201//203 202//205
f 195//185 194//182 209//204 210//206
f 188//186 187//184 202//205 203//207
f 189//187 188//186 203//207 204//208
f 182//189 181//188 196//209 197//210
f 190//190 189//187 204//208 205//196
f 183//191 182//189 197//210 198//198
f 210//206 209//204 224//211 225//212
f 203//207 202//205 217//213 218//214
f 204//208 203//207 218//214 219//215
f 197//210 196//209 211//216 212//217
f 205//196 204//208 219//215 220//218
f 198//198 197//210 212//217 213//219
f 206//197 205//196 220//218 221//220
f 199//199 198//198 213//219 214//221
f 207//200 206//197 221//220 222//222
f 200//201 199//199 214//221 215//223
f 208//202 207//200 222//222 223//224
f 201//203 200//201 215//223 216//225
f 209//204 208//202 223//224 224//211
f 202//205 201//203 216//225 217//213
f 214//221 213//219 228//226 229//227
f 222//222 221//220 236//228 237//229
f 215//223 214//221 229//227 230//230
f 223//224 222//222 237//229 238//231
f 216//225 215//223 230//230 231//232
f 224//211 223//224 238//231 239//233
f 217//213 216//225 231//232 232//234
f 225//212 224//211 239//233 240//235
f 218//214 217//213 232//234 233//236
f 219//215 218//214 233//236 234//237
f 212//217 211//216 226//238 227//239
f 220//218 219//215 234//237 235//240
f 213//219 212//217 227//239 228//226
f 221//220 220//218 235//240 236//228
f 233//236 232//234 247//241 248//242
f 234//237 233//236 248//242 249//243
f 227//239 226//238 241//244 242//245
f 235//240 234//237 249//243 250//246
f 228//226 227//239 242//245 243//247
f 236//228 235//240 250//246 251//248
f 229//227 228//226 243//247 244//249
f 237//229 236//228 251//248 252//250
f 230//230 229//227 244//249 245//251
f 238//231 237//229 252//250 253//252
f 231//232 230//230 245//251 246//253
f 239//233 238//231 253//252 254//254
f 232//234 231//232 246//253 247//241
f 240//235 239//233 254//254 255//255
f 252//250 251//248 266//256 267//257
f 245//251 244//249 259//258 260//259
f 253//252 252//250 267//257 268//260
f 246//253 245//251 260//259 261//261
f 254//254 253//252 268//260 269//262
f 247//241 246//253 261//261 262//263
f 255//255 254//254 269//262 270//264
f 248//242 247//241 262//263 263//265
f 249//243 248//242 263//265 264//266
f 242//245 241//244 256//267 257//268
f 250//246 249//243 264//266 265//269
f 243//247 242//245 257//268 258//270
f 251//248 250//246 265//269 266//256
f 244//249 243//247 258//270 259//258
f 264//266 263//265 278//271 279//272
f 257//268 256//267 271//273 272//274
f 265//269 264//266 279//272 280//275
f 258//270 257//268 272//274 273//276
f 266//256 265//269 280//275 281//277
f 259//258 258//270 273//276 274//278
f 267//257 266//256 281//277 282//279
f 260//259 259//258 274//278 275//280
f 268//260 267//257 282//279 283//281
f 261//261 260//259 275//280 276//282
f 269//262 268//260 283//281 284//283
f 262//263 261//261 276//282 277//284
f 270//264 269//262 284//283 285//285
f 263//265 262//263 277//284 278//271
f 275//280 274//278 289//286 290//287
f 283//281 282//279 297//288 298//289
f 276//282 275//280 290//287 291//290
f 284//283 283//281 298//289 299//291
f 277//284 276//282 291//290 292//292
f 285//285 284//283 299//291 300//293
f 278//271 277//284 292//292 293//294
f 279//272 278//271 293//294 294//295
f 272//274 271//273 286//296 287//297
f 280//275 279//272 294//295 295//298
f 273//276 272//274 287//297 288//299
f 281//277 280//275 295//298 296//300
f 274//278 273//276 288//299 289//286
f 282//279 281//277 296//300 297//288
f 294//295 293//294 308//301 309//302
f 287//297 286//296 301//303 302//304
f 295//298 294//295 309//302 310//305
f 288//299 287//297 302//304 303//306
f 296//300 295//298 310//305 311//307
f 289//286 288//299 303//306 304//308
f 297//288 296//300 311//307 312//309
f 290//287 289//286 304//308 305//310
f 298//289 297//288 312//309 313//311
f 291//290 290//287 305//310 306//312
f 299//291 298//289 313//311 314//313
f 292//292 291//290 306//312 307//314
f 300//293 299//291 314//313 315//315
f 293//294 292//292 307//314 308//301
f 313//311 312//309 327//316 328//317
f 306//312 305//310 320//318 321//319
f 314//313 313//311 328//317 329//320
f 307//314 306//312 321//319 322//321
f 315//315 314//313 329//320 330//322
f 308//301 307//314 322//321 323//323
f 309//302 308//301 323//323 324//324
f 302//304 301//303 316//325 317//326
f 310//305 309//302 324//324 325//327
f 303//306 302//304 317//326 318//328
f 311//307 310//305 325//327 326//329
f 304//308 303//306 318//328 319//330
f 312//309 311//307 326//329 327//316
f 305//310 304//308 319//330 320//318
f 325//327 324//324 340//331 341//332
f 318//328 317//326 333//333 334//334
f 326//329 325//327 341//332 342//335
f 319//330 318//328 334//334 335//336
f 327//316 326//329 342//335 343//337
f 320//318 319//330 335//336 336//338
f 328//317 327//316 343//337 344//339
f 321//319 320//318 336//338 337//340
f 329//320 328//317 344//339 345//341
f 322//321 321//319 337//340 338//342
f 330//322 329//320 345//341 346//343
f 323//323 322//321 338//342 339//344
f 324//324 323//323 339//344 340//331
f 317//326 316//325 332//345 333//333
f 345//341 344//339 359//346 360//347
f 338//342 337//340 352//348 353//349
f 346//343 345//341 360//347 361//350
f 339//344 338//342 353//349 354//351
f 340//331 339//344 354//351 355//352
f 333//333 332//345 347//353 348//354
f 341//332 340//331 355//352 356//355
f 334//334 333//333 348//354 349//356
f 342//335 341//332 356//355 357//357
f 335//336 334//334 349//356 350//358
f 343//337 342//335 357//357 358//359
f 336//338 335//336 350//358 351//360
f 344//339 343//337 358//359 359//346
f 337//340 336//338 351//360 352//348
f 349//356 348//354 363//361 364//362
f 357//357 356//355 371//363 372//364
f 350//358 349//356 364//362 365//365
f 358//359 357//357 372//364 373//366
f 351//360 350//358 365//365 366//367
f 359//346 358//359 373//366 374//368
f 352//348 351//360 366//367 367//369
f 360//347 359//346 374//368 375//370
f 353//349 352//348 367//369 368//371
f 361//350 360//347 375//370 376//372
f 354//351 353//349 368//371 369//373
f 355//352 354//351 369//373 370//374
f 348//354 347//353 362//375 363//361
f 356//355 355//352 370//374 371//363
f 368//371 367//369 382//376 383//377
f 376//372 375//370 390//378 391//379
f 369//373 368//371 383//377 384//380
f 370//374 369//373 384//380 385//381
f 363//361 362//375 377//382 378//383
f 371//363 370//374 385//381 386//384
f 364//362 363//361 378//383 379//385
f 372//364 371//363 386//384 387//386
f 365//365 364//362 379//385 380//387
f 373//366 372//364 387//386 388//388
f 366//367 365//365 380//387 381//389
f 374//368 373//366 388//388 389//390
f 367//369 366//367 381//389 382//376
f 375//370 374//368 389//390 390//378
f 387//386 386//384 401//391 402//392
f 380//387 379//385 394//393 395//394
f 388//388 387//386 402//392 403//395
f 381//389 380//387 395//394 396//396
f 389//390 388//388 403//395 404//397
f 382//376 381//389 396//396 397//398
f 390//378 389//390 404//397 405//399
f 383//377 382//376 397//398 398//400
f 391//379 390//378 405//399 406//401
f 384//380 383//377 398//400 399//402
f 385//381 384//380 399//402 400//403
f 378//383 377//382 392//404 393//405
f 386//384 385//381 400//403 401//391
f 379//385 378//383 393//405 394//393
f 406//401 405//399 420//406 421//407
f 399//402 398//400 413//408 414//409
f 400//403 399//402 414//409 415//410
f 393//405 392//404 407//411 408//412
f 401//391 400//403 415//410 416//413
f 394//393 393//405 408//412 409//414
f 402//392 401//391 416//413 417//415
f 395//394 394//393 409//414 410//416
f 403//395 402//392 417//415 418//417
f 396//396 395//394 410//416 411//418
f 404//397 403//395 418//417 419//419
f 397//398 396//396 411//418 412//420
f 405//399 404//397 419//419 420//406
f 398//400 397//398 412//420 413//408
f 410//416 409//414 424//421 425//422
f 418//417 417//415 432//423 433//424
f 411//418 410//416 425//422 426//425
f 419//419 418//417 433//424 434//426
f 412//420 411//418 426//425 427//427
f 420//406 419//419 434//426 435//428
f 413//408 412//420 427//427 428//429
f 421//407 420//406 435//428 436//430
f 414//409 413//408 428//429 429//431
f 415//410 414//409 429//431 430//432
f 408//412 407//411 422//433 423//434
f 416//413 415//410 430//432 431//435
f 409//414 408//412 423//434 424//421
f 417//415 416//413 431//435 432//423
f 429//431 428//429 443//436 444//437
f 430//432 429//431 444//437 445//438
f 423//434 422//433 437//439 438//440
f 431//435 430//432 445//438 446//441
f 424//421 423//434 438//440 439//442
f 432//423 431//435 446//441 447//443
f 425//422 424//421 439//442 440//444
f 433//424 432//423 447//443 448//445
f 426//425 425//422 440//444 441//446
f 434//426 433//424 448//445 449//447
f 427//427 426//425 441//446 442//448
f 435//428 434//426 449//447 450//449
f 428//429 427//427 442//448 443//436
f 436//430 435//428 450//449 451//450
f 448//445 447//443 463//451 464//452
f 441//446 440//444 456//453 457//454
f 449//447 448//445 464//452 465//455
f 442//448 441//446 457//454 458//456
f 450//449 449//447 465//455 466//457
f 443//436 442//448 458//456 459//458
f 451//450 450//449 466//457 467//459
f 444//437 443//436 459//458 460//460
f 445//438 444//437 460//460 461//461
f 438//440 437//439 453//462 454//463
f 446//441 445//438 461//461 462//464
f 439//442 438//440 454//463 455//465
f 447//443 446//441 462//464 463//451
f 440//444 439//442 455//465 456//453
f 461//461 460//460 475//466 476//467
f 454//463 453//462 468//468 469//469
f 462//464 461//461 476//467 477//470
f 455//465 454//463 469//469 470//471
f 463//451 462//464 477//470 478//472
f 456//453 455//465 470//471 471//473
f 464//452 463//451 478//472 479//474
f 457//454 456//453 471//473 472//475
f 465//455 464//452 479//474 480//476
f 458//456 457//454 472//475 473//477
f 466//457 465//455 480//476 481//478
f 459//458 458//456 473//477 474//479
f 467//459 466//457 481//478 482//480
f 460//460 459//458 474//479 475//466
f 1//22 452//481 16//23
f 331//482 15//15 30//16
f 16//23 452//481 31//44
f 331//482 30//16 45//41
f 31//44 452//481 46//51
f 331//482 45//41 60//47
f 46//51 452//481 61//72
f 331//482 60//47 75//69
f 61//72 452//481 76//78
f 331//482 75//69 90//90
f 76//78 452//481 91//101
f 331//482 90//90 105//98
f 91//101 452//481 106//108
f 331//482 105//98 120//120
f 106//108 452//481 121//130
f 331//482 120//120 135//127
f 121//130 452//481 136//136
f 331//482 135//127 150//149
f 136//136 452//481 151//159
f 331//482 150//149 165//156
f 151//159 452//481 166//180
f 331//482 165//156 180//178
f 166//180 452//481 181//188
f 331//482 180//178 195//185
f 181//188 452//481 196//209
f 331//482 195//185 210//206
f 196//209 452//481 211//216
f 331//482 210//206 225//212
f 211//216 452//481 226//238
f 331//482 225//212 240//235
f 226//238 452//481 241//244
f 331//482 240//235 255//255
f 241//244 452//481 256//267
f 331//482 255//255 270//264
f 256//267 452//481 271//273
f 331//482 270//264 285//285
f 271//273 452//481 286//296
f 331//482 285//285 300//293
f 286//296 452//481 301//303
f 331//482 300//293 315//315
f 301//303 452//481 316//325
f 331//482 315//315 330//322
f 316//325 452//481 332//345
f 331//482 330//322 346//343
f 332//345 452//481 347//353
f 331//482 346//343 361//350
f 347//353 452//481 362//375
f 331//482 361//350 376//372
f 362//375 452//481 377//382
f 331//482 376//372 391//379
f 377//382 452//481 392//404
f 331//482 391//379 406//401
f 392//404 452//481 407//411
f 331//482 406//401 421//407
f 407//411 452//481 422//433
f 331//482 421//407 436//430
f 422//433 452//481 437//439
f 331//482 436//430 451//450
f 437//439 452//481 453//462
f 331//482 451//450 467//459
f 331//482 467//459 482//480
f 453//462 452//481 468//468
f 480//476 479//474 12//6 13//5
f 473//477 472//475 5//1 6//9
f 481//478 480//476 13//5 14//11
f 474//479 473//477 6//9 7//13
f 482//480 481//478 14//11 15//15
f 475//466 474//479 7//13 8//17
f 468//468 452//481 1//22
f 331//482 482//480 15//15
f 476//467 475//466 8//17 9//19
f 469//469 468//468 1//22 2//21
f 477//470 476//467 9//19 10//25
f 470//471 469//469 2//21 3//27
f 478//472 477//470 10//25 11//29
f 471//473 470//471 3//27 4//2
f 479//474 478//472 11//29 12//6
f 472//475 471//473 4//2 5//1
o Cylinder
v 0.072524 -6.991536 -0.616045
v 0.072524 -4.675638 -0.616045
v 0.115628 -6.991536 -0.611800
v 0.115628 -4.675638 -0.611800
v 0.157075 -6.991536 -0.599227
v 0.157075 -4.675638 -0.599227
v 0.195273 -6.991536 -0.578810
v 0.195273 -4.675638 -0.578810
v 0.228754 -6.991536 -0.551332
v 0.228754 -4.675638 -0.551332
v 0.256231 -6.991536 -0.517851
v 0.256231 -4.675638 -0.517851
v 0.276649 -6.991536 -0.479653
v 0.276649 -4.675638 -0.479653
v 0.289222 -6.991536 -0.438206
v 0.289222 -4.675638 -0.438206
v 0.293467 -6.991536 -0.395102
v 0.293467 -4.675638 -0.395102
v 0.289222 -6.991536 -0.351998
v 0.289222 -4.675638 -0.351998
v 0.276649 -6.991536 -0.310551
v 0.276649 -4.675638 -0.310551
v 0.256231 -6.991536 -0.272353
v 0.256231 -4.675638 -0.272353
v 0.228754 -6.991536 -0.238872
v 0.228754 -4.675638 -0.238872
v 0.195273 -6.991536 -0.211395
v 0.195273 -4.675638 -0.211395
v 0.157075 -6.991536 -0.190977
v 0.157075 -4.675638 -0.190977
v 0.115628 -6.991536 -0.178404
v 0.115628 -4.675638 -0.178404
v 0.072524 -6.991536 -0.174159
v 0.072524 -4.675638 -0.174159
v 0.029420 -6.991536 -0.178404
v 0.029420 -4.675638 -0.178404
v -0.012027 -6.991536 -0.190977
v -0.012027 -4.675638 -0.190977
v -0.050226 -6.991536 -0.211395
v -0.050226 -4.675638 -0.211395
v -0.083707 -6.991536 -0.238872
v -0.083707 -4.675638 -0.238872
v -0.111184 -6.991536 -0.272353
v -0.111184 -4.675638 -0.272353
v -0.131601 -6.991536 -0.310551
v -0.131601 -4.675638 -0.310551
v -0.144174 -6.991536 -0.351998
v -0.144174 -4.675638 -0.351998
v -0.148419 -6.991536 -0.395102
v -0.148419 -4.675638 -0.395102
v -0.144174 -6.991536 -0.438206
v -0.144174 -4.675638 -0.438206
v -0.131601 -6.991536 -0.479654
v -0.131601 -4.675638 -0.479654
v -0.111183 -6.991536 -0.517852
v -0.111183 -4.675638 -0.517852
v -0.083706 -6.991536 -0.551333
v -0.083706 -4.675638 -0.551333
v -0.050225 -6.991536 -0.578810
v -0.050225 -4.675638 -0.578810
v -0.012027 -6.991536 -0.599227
v -0.012027 -4.675638 -0.599227
v 0.029420 -6.991536 -0.611800
v 0.029420 -4.675638 -0.611800
vt 0.971656 -0.013332
vt 0.971655 1.013332
vt 0.943949 1.013332
vt 0.943949 -0.013332
vt 0.916242 1.013332
vt 0.916242 -0.013332
vt 0.888535 1.013332
vt 0.888535 -0.013332
vt 0.860828 1.013332
vt 0.860828 -0.013332
vt 0.833121 1.013332
vt 0.833121 -0.013332
vt 0.805414 1.013332
vt 0.805414 -0.013332
vt 0.777707 1.013332
vt 0.777707 -0.013332
vt 0.750000 1.013332
vt 0.750000 -0.013332
vt 0.722293 1.013332
vt 0.722293 -0.013332
vt 0.694586 1.013332
vt 0.694586 -0.013332
vt 0.666879 1.013332
vt 0.666879 -0.013332
vt 0.639172 1.013332
vt 0.639172 -0.013332
vt 0.611465 1.013332
vt 0.611465 -0.013332
vt 0.583758 1.013332
vt 0.583758 -0.013332
vt 0.556051 1.013332
vt 0.556051 -0.013332
vt 0.528345 1.013332
vt 0.528344 -0.013332
vt 0.500638 1.013332
vt 0.500637 -0.013332
vt 0.472931 1.013332
vt 0.472931 -0.013332
vt 0.445224 1.013332
vt 0.445224 -0.013332
vt 0.417517 1.013332
vt 0.417517 -0.013332
vt 0.389810 1.013332
vt 0.389810 -0.013332
vt 0.362103 1.013332
vt 0.362103 -0.013332
vt 0.334396 1.013332
vt 0.334396 -0.013332
vt 0.306689 1.013332
vt 0.306689 -0.013332
vt 0.278982 1.013332
vt 0.278982 -0.013332
vt 0.251275 1.013332
vt 0.251275 -0.013332
vt 0.223568 1.013332
vt 0.223568 -0.013332
vt 0.195861 1.013332
vt 0.195861 -0.013332
vt 0.168154 1.013332
vt 0.168154 -0.013332
vt 0.140447 1.013332
vt 0.140447 -0.013332
vt 0.999362 1.013332
vt 1.027069 1.013332
vt 1.054776 1.013332
vt 1.082483 1.013332
vt 1.110190 1.013332
vt 1.137897 1.013332
vt 1.165604 1.013332
vt 1.193311 1.013332
vt 1.221018 1.013332
vt 1.248725 1.013332
vt 1.276432 1.013332
vt 1.304139 1.013332
vt 1.331846 1.013332
vt 1.359553 1.013332
vt 1.387260 1.013332
vt 0.999362 -0.013332
vt 0.112740 1.013332
vt 0.112740 -0.013332
vt 1.387259 -0.013332
vt 1.359553 -0.013332
vt 1.331846 -0.013332
vt 1.304139 -0.013332
vt 1.276432 -0.013332
vt 1.248725 -0.013332
vt 1.221018 -0.013332
vt 1.193311 -0.013332
vt 1.165604 -0.013332
vt 1.137897 -0.013332
vt 1.110190 -0.013332
vt 1.082483 -0.013332
vt 1.054776 -0.013332
vt 1.027069 -0.013332
vn 0.000000 -0.685700 -0.727900
vn 0.000000 0.685700 -0.727900
vn 0.142000 0.685700 -0.713900
vn 0.142000 -0.685700 -0.713900
vn 0.278500 0.685700 -0.672500
vn 0.278500 -0.685700 -0.672500
vn 0.404400 0.685700 -0.605200
vn 0.404400 -0.685700 -0.605200
vn 0.514700 0.685700 -0.514700
vn 0.514700 -0.685700 -0.514700
vn 0.605200 0.685700 -0.404400
vn 0.605200 -0.685700 -0.404400
vn 0.672500 0.685700 -0.278500
vn 0.672500 -0.685700 -0.278500
vn 0.713900 0.685700 -0.142000
vn 0.713900 -0.685700 -0.142000
vn 0.727900 0.685700 0.000000
vn 0.727900 -0.685700 0.000000
vn 0.713900 0.685700 0.142000
vn 0.713900 -0.685700 0.142000
vn 0.672500 0.685700 0.278500
vn 0.672500 -0.685700 0.278500
vn 0.605200 0.685700 0.404400
vn 0.605200 -0.685700 0.404400
vn 0.514700 0.685700 0.514700
vn 0.514700 -0.685700 0.514700
vn 0.404400 0.685700 0.605200
vn 0.404400 -0.685700 0.605200
vn 0.278500 0.685700 0.672500
vn 0.278500 -0.685700 0.672500
vn 0.142000 0.685700 0.713900
vn 0.142000 -0.685700 0.713900
vn 0.000000 0.685700 0.727900
vn 0.000000 -0.685700 0.727900
vn -0.142000 0.685700 0.713900
vn -0.142000 -0.685700 0.713900
vn -0.278500 0.685700 0.672500
vn -0.278500 -0.685700 0.672500
vn -0.404400 0.685700 0.605200
vn -0.404400 -0.685700 0.605200
vn -0.514700 0.685700 0.514700
vn -0.514700 -0.685700 0.514700
vn -0.605200 0.685700 0.404400
vn -0.605200 -0.685700 0.404400
vn -0.672500 0.685700 0.278500
vn -0.672500 -0.685700 0.278500
vn -0.713900 0.685700 0.142000
vn -0.713900 -0.685700 0.142000
vn -0.727900 0.685700 0.000000
vn -0.727900 -0.685700 0.000000
vn -0.713900 0.685700 -0.142000
vn -0.713900 -0.685700 -0.142000
vn -0.672500 0.685700 -0.278500
vn -0.672500 -0.685700 -0.278500
vn -0.605200 0.685700 -0.404400
vn -0.605200 -0.685700 -0.404400
vn -0.514700 0.685700 -0.514700
vn -0.514700 -0.685700 -0.514700
vn -0.404400 0.685700 -0.605200
vn -0.404400 -0.685700 -0.605200
vn -0.278500 0.685700 -0.672500
vn -0.278500 -0.685700 -0.672500
vn -0.142000 0.685700 -0.713900
vn -0.142000 -0.685700 -0.713900
usemtl Material.003
s 1
f 483/1/483 484/2/484 486/3/485 485/4/486
f 485/4/486 486/3/485 488/5/487 487/6/488
f 487/6/488 488/5/487 490/7/489 489/8/490
f 489/8/490 490/7/489 492/9/491 491/10/492
f 491/10/492 492/9/491 494/11/493 493/12/494
f 493/12/494 494/11/493 496/13/495 495/14/496
f 495/14/496 496/13/495 498/15/497 497/16/498
f 497/16/498 498/15/497 500/17/499 499/18/500
f 499/18/500 500/17/499 502/19/501 501/20/502
f 501/20/502 502/19/501 504/21/503 503/22/504
f 503/22/504 504/21/503 506/23/505 505/24/506
f 505/24/506 506/23/505 508/25/507 507/26/508
f 507/26/508 508/25/507 510/27/509 509/28/510
f 509/28/510 510/27/509 512/29/511 511/30/512
f 511/30/512 512/29/511 514/31/513 513/32/514
f 513/32/514 514/31/513 516/33/515 515/34/516
f 515/34/516 516/33/515 518/35/517 517/36/518
f 517/36/518 518/35/517 520/37/519 519/38/520
f 519/38/520 520/37/519 522/39/521 521/40/522
f 521/40/522 522/39/521 524/41/523 523/42/524
f 523/42/524 524/41/523 526/43/525 525/44/526
f 525/44/526 526/43/525 528/45/527 527/46/528
f 527/46/528 528/45/527 530/47/529 529/48/530
f 529/48/530 530/47/529 532/49/531 531/50/532
f 531/50/532 532/49/531 534/51/533 533/52/534
f 533/52/534 534/51/533 536/53/535 535/54/536
f 535/54/536 536/53/535 538/55/537 537/56/538
f 537/56/538 538/55/537 540/57/539 539/58/540
f 539/58/540 540/57/539 542/59/541 541/60/542
f 541/60/542 542/59/541 544/61/543 543/62/544
f 486/3/485 484/2/484 546/63/545 544/64/543 542/65/541 540/66/539 538/67/537 536/68/535 534/69/533 532/70/531 530/71/529 528/72/527 526/73/525 524/74/523 522/75/521 520/76/519 518/77/517 516/33/515 514/31/513 512/29/511 510/27/509 508/25/507 506/23/505 504/21/503 502/19/501 500/17/499 498/15/497 496/13/495 494/11/493 492/9/491 490/7/489 488/5/487
f 545/78/546 546/63/545 484/2/484 483/1/483
f 543/62/544 544/61/543 546/79/545 545/80/546
f 483/1/483 485/4/486 487/6/488 489/8/490 491/10/492 493/12/494 495/14/496 497/16/498 499/18/500 501/20/502 503/22/504 505/24/506 507/26/508 509/28/510 511/30/512 513/32/514 515/34/516 517/81/518 519/82/520 521/83/522 523/84/524 525/85/526 527/86/528 529/87/530 531/88/532 533/89/534 535/90/536 537/91/538 539/92/540 541/93/542 543/94/544 545/78/546
o Cube.001_Cube.002
v -0.175787 -4.800913 -0.162101
v -0.861613 -4.008055 -0.109351
v -0.175787 -4.800913 -0.626792
v -0.861613 -4.008055 -0.679542
v 0.310624 -4.805162 -0.162101
v 1.007040 -3.989291 -0.109351
v 0.310624 -4.805162 -0.626792
v 1.007040 -3.989291 -0.679542
v -0.931686 -4.281539 -0.109350
v -0.931686 -4.281539 -0.679542
v 1.086072 -4.249379 -0.679542
v 1.086072 -4.249379 -0.109350
v -0.246168 -4.520378 -0.631672
v 0.398160 -4.524104 -0.631672
v 0.398160 -4.524104 -0.157221
v -0.246168 -4.520378 -0.157221
v 0.066430 -3.998673 -0.679542
v 0.068466 -4.846781 -0.626792
v 0.066430 -3.998673 -0.109351
v 0.068466 -4.846781 -0.162101
v 0.070909 -4.265459 -0.109350
v 0.070909 -4.265459 -0.679542
v 0.069712 -4.522241 -0.157221
v 0.069712 -4.522241 -0.631672
vn -0.393800 -0.476400 0.786100
vn -0.393800 -0.476400 -0.786100
vn -0.547100 -0.586000 -0.597700
vn -0.547100 -0.586000 0.597700
vn 0.000900 -0.100100 -0.995000
vn 0.407600 -0.485100 -0.773600
vn 0.524400 -0.603600 -0.600500
vn -0.005700 -0.747800 -0.663900
vn 0.407600 -0.485100 0.773600
vn 0.524400 -0.603600 0.600500
vn 0.000900 -0.100100 0.995000
vn -0.005700 -0.747800 0.663900
vn -0.007100 0.707100 0.707100
vn -0.007100 0.707100 -0.707100
vn -0.497200 0.634000 -0.592300
vn -0.497200 0.634000 0.592300
vn -0.712400 -0.388000 0.584700
vn 0.001000 -0.092000 0.995700
vn 0.475900 0.648700 -0.593800
vn 0.475900 0.648700 0.593800
vn 0.728700 -0.356300 0.584800
vn 0.728700 -0.356300 -0.584800
vn 0.001000 -0.092000 -0.995700
vn -0.712400 -0.388000 -0.584700
usemtl Material.001
s 1
f 562//547 559//548 549//549 547//550
f 570//551 560//552 553//553 564//554
f 560//552 561//555 551//556 553//553
f 569//557 562//547 547//550 566//558
f 566//558 564//554 553//553 551//556
f 565//559 563//560 550//561 548//562
f 565//559 548//562 555//563 567//564
f 554//565 552//566 558//567 557//568
f 563//560 554//565 557//568 568//569
f 548//562 550//561 556//570 555//563
f 567//564 555//563 562//547 569//557
f 557//568 558//567 561//555 560//552
f 568//569 557//568 560//552 570//551
f 555//563 556//570 559//548 562//547
f 556//570 568//569 570//551 559//548
f 558//567 567//564 569//557 561//555
f 550//561 563//560 568//569 556//570
f 552//566 565//559 567//564 558//567
f 552//566 554//565 563//560 565//559
f 547//550 549//549 564//554 566//558
f 561//555 569//557 566//558 551//556
f 559//548 570//551 564//554 549//549
o Cube_Cube.001
v -0.318385 -3.898745 -0.310284
v 0.397958 -3.898745 -0.310284
v 0.360472 1.503473 -0.310284
v -0.280899 1.503473 -0.310284
v 0.039786 -3.898745 -0.310284
v 0.039786 1.503473 -0.310284
v -0.377311 -4.040397 -0.313102
v 0.026450 7.559950 -0.370115
v -0.377311 -4.040397 -0.495196
v 0.026450 7.559950 -0.438183
v 0.497797 -4.040397 -0.313102
v 0.094037 7.559950 -0.370115
v 0.497797 -4.040397 -0.495196
v 0.094037 7.559950 -0.438183
v -0.297928 -3.898745 -0.313102
v -0.297928 -3.898745 -0.495196
v 0.418415 -3.898745 -0.495196
v 0.418415 -3.898745 -0.313102
v -0.097616 2.274875 -0.313102
v -0.097616 2.274876 -0.495196
v 0.218103 2.274876 -0.495196
v 0.218103 2.274876 -0.313102
v -0.222561 1.671169 -0.495196
v 0.343047 1.671169 -0.495196
v 0.343047 1.671169 -0.313102
v -0.222561 1.671168 -0.313102
v -0.260442 1.503473 -0.495196
v 0.380929 1.503473 -0.495196
v 0.380929 1.503473 -0.313102
v -0.260442 1.503473 -0.313102
v -0.130950 1.973022 -0.313102
v -0.130950 1.973022 -0.495196
v 0.251437 1.973022 -0.495196
v 0.251437 1.973022 -0.313102
v -0.231384 2.949340 -0.313102
v -0.231384 2.949340 -0.495196
v 0.351871 2.949340 -0.495196
v 0.351871 2.949340 -0.313102
v -0.135041 2.622688 -0.495196
v 0.255528 2.622688 -0.495196
v 0.255528 2.622688 -0.313102
v -0.135041 2.622687 -0.313102
v -0.107023 5.198363 -0.313102
v -0.107023 5.198363 -0.495196
v 0.227509 5.198363 -0.495196
v 0.227509 5.198363 -0.313102
v 0.011518 7.559950 -0.404149
v -0.570641 -4.040397 -0.404149
v 0.108969 7.559950 -0.404149
v 0.691128 -4.040397 -0.404149
v 0.576670 -3.898745 -0.404149
v -0.456183 -3.898745 -0.404149
v -0.167366 2.274876 -0.404149
v 0.287852 2.274876 -0.404149
v -0.347516 1.671169 -0.404149
v 0.468003 1.671169 -0.404149
v -0.402135 1.503473 -0.404149
v 0.522622 1.503473 -0.404149
v 0.335914 1.973022 -0.404149
v -0.215427 1.973022 -0.404149
v 0.480725 2.949340 -0.404149
v -0.360238 2.949340 -0.404149
v 0.341813 2.622688 -0.404149
v -0.221326 2.622688 -0.404149
v -0.180928 5.198363 -0.404149
v 0.301415 5.198363 -0.404149
v 0.060243 7.780500 -0.438183
v 0.060243 -4.040397 -0.495196
v 0.060243 7.780500 -0.370115
v 0.060243 -4.040397 -0.313102
v 0.060243 -3.898745 -0.313102
v 0.060243 -3.898745 -0.495196
v 0.060243 2.274876 -0.495196
v 0.060243 2.274876 -0.313102
v 0.060243 1.671169 -0.495196
v 0.060243 1.671169 -0.313102
v 0.060243 1.503473 -0.495196
v 0.060243 1.503473 -0.313102
v 0.060243 1.973022 -0.313102
v 0.060243 1.973022 -0.495196
v 0.060243 2.949340 -0.313102
v 0.060243 2.949340 -0.495196
v 0.060243 2.622688 -0.313102
v 0.060243 2.622688 -0.495196
v 0.060243 5.198363 -0.495196
v 0.060243 5.198363 -0.313102
v 0.060243 7.923024 -0.404149
v 0.060243 -4.040397 -0.404149
vt -2.224369 -2.258353
vt -2.864316 -2.397748
vt -2.720552 -2.526202
vt -2.017071 -2.443567
vt -3.322608 -3.759186
vt -3.971311 -3.179618
vt -4.019285 -2.943918
vt -3.226802 -3.651956
vt -1.954506 -2.499469
vt -1.314542 -2.360074
vt -1.458307 -2.231619
vt -2.161788 -2.314254
vt -2.673905 -4.338754
vt -2.434319 -4.359978
vt -2.089437 -2.378911
vt -2.442762 -2.774388
vt -3.235245 -2.066365
vt -3.232061 -1.358047
vt -2.221512 -2.526748
vt -2.160305 -2.581433
vt -2.001184 -2.457753
vt 0.784991 0.838355
vt 1.365792 0.319449
vt 5.087559 4.348502
vt 4.438856 4.928070
vt 1.017805 0.630355
vt 1.274433 0.401069
vt 4.860426 4.551430
vt 4.573787 4.807511
vt 0.204175 1.357277
vt 3.790153 5.507637
vt 0.552162 1.046370
vt 0.295534 1.275656
vt 4.017302 5.304709
vt 4.303925 5.048628
vt 0.537961 -0.464560
vt 0.381680 -0.324932
vt 0.549135 -0.001056
vt 0.675467 -0.113936
vt 0.027981 -0.008937
vt -0.325702 0.307073
vt -0.022676 0.509813
vt 0.263229 0.254371
vt 0.588275 -0.509522
vt 0.744556 -0.649135
vt 1.047597 -0.446395
vt 0.921265 -0.333515
vt -1.590148 -2.824983
vt -2.096476 -3.083765
vt -1.930550 -3.232008
vt -1.350905 -3.038725
vt 0.467405 0.482892
vt 0.121119 0.792270
vt 0.159354 1.169019
vt 0.671566 0.711414
vt -2.588711 -1.932839
vt -2.082383 -1.674057
vt -2.248308 -1.525813
vt -2.827938 -1.719096
vt 0.813676 0.173515
vt 1.183761 0.253793
vt -2.421178 -2.082518
vt -3.000824 -2.275801
vt -2.932203 -2.337086
vt -2.322250 -2.170896
vt -1.757680 -2.675304
vt -1.178035 -2.482021
vt -1.246640 -2.420720
vt -1.856608 -2.586926
vt -0.149009 0.622677
vt -0.031884 0.928964
vt 0.966679 0.036820
vt -1.714108 -1.958823
vt -1.411160 -2.229481
vt 0.335236 -0.728118
vt -0.192956 -0.256217
vt -2.150910 -1.568574
vt -2.017056 -1.688165
vt -0.721132 0.215683
vt -0.954507 0.424182
vt -1.277306 -2.349072
vt 0.568611 -0.936617
vt -1.780715 -2.654719
vt -1.194016 -2.467741
vt -1.019523 -2.623647
vt -1.529128 -2.879495
vt -2.398128 -2.103103
vt -2.984843 -2.290064
vt -3.159336 -2.134174
vt -2.649715 -1.878326
vt -3.223166 -3.825496
vt -3.250195 -3.801339
vt -3.460583 -3.913609
vt -3.372611 -3.691970
vt -3.399656 -3.667796
vt -1.207921 -2.455334
vt -1.327870 -3.059310
vt -1.579457 -2.834534
vt -1.382414 -2.299428
vt -1.900680 -3.258695
vt -1.726187 -3.414585
vt -1.884699 -3.272974
vt -1.953304 -3.211673
vt -1.223902 -2.441055
vt -1.251993 -3.127103
vt -1.155281 -2.502356
vt -2.789048 -2.465010
vt -2.954957 -2.316767
vt -1.389827 -2.292811
vt -0.481983 0.446686
vt -1.957346 -2.231073
vt -1.896139 -2.285758
vt -1.736097 -1.983434
vt -2.528580 -1.275412
vt -2.021207 -3.151028
vt -2.164971 -3.022573
vt -2.157652 -1.606794
vt -2.013887 -1.735264
vt -3.159695 -1.422703
vt -2.806355 -1.027226
vt -2.018554 -2.176389
vt -2.177675 -2.300068
vt 0.349126 -0.740525
vt 0.877318 -1.212425
vt 1.098255 -0.965145
vt 1.229628 0.212827
vt 1.741823 -0.244809
vt 1.855249 -0.117837
vt -0.285282 1.794562
vt 3.368598 5.884277
vt 5.509114 3.971862
vt -2.282704 -2.472064
vt -3.513020 -1.818180
vt -2.901053 -4.135826
vt -2.252350 -4.715393
vt -2.156544 -4.608148
vt -2.949011 -3.900141
vt -3.744163 -3.382546
vt -4.392866 -2.802978
vt -4.297060 -2.695748
vt -3.504576 -3.403770
vt 0.501566 0.017506
vt 0.776277 0.018210
vt 0.810130 1.003946
vt 0.503303 1.003159
vt 0.222655 0.016052
vt 0.497370 0.016758
vt 0.499111 1.002409
vt 0.192288 1.001623
vn -0.937300 0.348300 0.000000
vn -0.215400 0.056800 -0.974900
vn -0.247900 -0.582800 -0.773900
vn -0.942600 -0.334000 0.000000
vn 0.000000 0.000000 -1.000000
vn 0.215400 0.056800 -0.974900
vn 0.247900 -0.582800 -0.773900
vn 0.000000 -0.707100 -0.707100
vn 0.937300 0.348300 0.000000
vn 0.215400 0.056800 0.974900
vn 0.247900 -0.582800 0.773900
vn 0.942600 -0.334000 0.000000
vn 0.000000 0.000000 1.000000
vn -0.215400 0.056800 0.974900
vn -0.247900 -0.582800 0.773900
vn 0.000000 -0.707100 0.707100
vn 0.000000 -1.000000 0.000000
vn 0.000000 1.000000 0.000000
vn 0.000000 0.240600 -0.970600
vn -0.510800 0.068500 -0.856900
vn -0.994000 0.109200 0.000000
vn -0.299600 0.046300 0.952900
vn 0.991100 0.133100 0.000000
vn 0.299600 0.046300 0.952900
vn 0.299600 0.046300 -0.952900
vn -0.991100 0.133100 0.000000
vn -0.299600 0.046300 -0.952900
vn -0.970500 -0.241100 0.000000
vn -0.361900 -0.081500 -0.928600
vn -0.395000 0.000800 -0.918600
vn -1.000000 0.002100 0.000000
vn 0.361900 -0.081500 -0.928600
vn 0.395000 0.000800 -0.918600
vn 0.970500 -0.241100 0.000000
vn 0.361900 -0.081500 0.928600
vn 0.395000 0.000800 0.918600
vn 1.000000 0.002100 0.000000
vn -0.361900 -0.081500 0.928600
vn -0.395000 0.000800 0.918600
vn -0.968700 0.248100 0.000000
vn -0.365200 0.084700 -0.927000
vn -0.327200 0.108800 -0.938600
vn -0.953200 0.302400 0.000000
vn 0.365200 0.084700 -0.927000
vn 0.327200 0.108800 -0.938600
vn 0.968700 0.248100 0.000000
vn 0.365200 0.084700 0.927000
vn 0.327200 0.108800 0.938600
vn 0.953200 0.302400 0.000000
vn -0.365200 0.084700 0.927000
vn -0.327200 0.108800 0.938600
vn 0.000000 0.011900 0.999900
vn -0.412600 0.036000 0.910200
vn -0.382200 -0.058000 0.922200
vn 0.997300 0.072700 0.000000
vn 0.412600 0.036000 0.910200
vn 0.382200 -0.058000 0.922200
vn 0.992900 -0.119000 0.000000
vn 0.000000 0.011900 -0.999900
vn 0.412600 0.036000 -0.910200
vn 0.382200 -0.058000 -0.922200
vn -0.997300 0.072700 0.000000
vn -0.412600 0.036000 -0.910200
vn -0.382200 -0.058000 -0.922200
vn -0.992900 -0.119000 0.000000
vn 0.510800 0.068500 -0.856900
vn 0.994000 0.109200 0.000000
vn 0.510800 0.068500 0.856900
vn 0.000000 0.240600 0.970600
vn -0.510800 0.068500 0.856900
usemtl Material.005
s 1
f 622/95/571 586/96/572 579/97/573 618/98/574
f 642/99/575 587/100/576 583/101/577 638/102/578
f 621/103/579 588/104/580 581/105/581 620/106/582
f 641/99/583 585/107/584 577/108/585 640/102/586
f 658/109/587 638/110/578 583/111/577 620/112/582
f 657/109/588 637/113/589 580/114/590 617/115/591
f 648/116/583 600/117/592 585/118/584 641/119/583
f 628/120/593 599/121/594 588/122/580 621/123/579
f 647/116/575 598/124/595 587/125/576 642/119/575
f 627/126/596 597/127/597 586/128/572 622/129/571
f 634/130/598 609/131/599 590/132/600 623/133/601
f 654/134/575 610/135/602 591/136/603 643/137/575
f 633/138/604 611/139/605 592/140/606 624/141/607
f 653/134/583 612/131/608 589/132/609 644/137/583
f 630/142/610 602/143/611 593/144/612 625/145/613
f 650/146/575 603/147/614 594/148/615 645/149/575
f 629/150/616 604/151/617 595/152/618 626/153/619
f 649/146/583 601/154/620 596/155/621 646/149/583
f 625/156/613 593/157/612 597/158/597 627/159/596
f 645/149/575 594/148/615 598/124/595 647/116/575
f 626/160/619 595/161/618 599/162/594 628/163/593
f 646/149/583 596/155/621 600/117/592 648/116/583
f 644/137/583 589/132/609 601/154/620 649/146/583
f 624/164/607 592/136/606 604/147/617 629/165/616
f 643/137/575 591/136/603 603/147/614 650/146/575
f 623/133/601 590/132/600 602/154/611 630/166/610
f 656/167/622 613/168/623 605/169/624 651/170/583
f 636/171/625 616/172/626 608/173/627 631/174/628
f 655/167/629 615/172/630 607/173/631 652/170/575
f 635/175/632 614/168/633 606/169/634 632/176/635
f 651/170/583 605/169/624 612/131/608 653/134/583
f 631/177/628 608/178/627 611/179/605 633/180/604
f 652/170/575 607/173/631 610/135/602 654/134/575
f 632/181/635 606/182/634 609/183/599 634/184/598
f 617/185/591 580/186/590 614/168/633 635/175/632
f 637/187/589 584/188/636 615/172/630 655/167/629
f 619/189/637 582/188/638 616/172/626 636/171/625
f 639/187/639 578/186/640 613/168/623 656/167/622
f 584/188/636 619/189/637 636/171/625 615/172/630
f 578/186/640 617/185/591 635/175/632 613/168/623
f 605/190/624 632/191/635 634/192/598 612/193/608
f 607/194/631 631/177/628 633/180/604 610/195/602
f 613/168/623 635/175/632 632/176/635 605/169/624
f 615/172/630 636/171/625 631/174/628 607/173/631
f 589/132/609 623/133/601 630/166/610 601/154/620
f 591/136/603 624/164/607 629/165/616 603/147/614
f 594/196/615 626/160/619 628/163/593 598/197/595
f 596/198/621 625/145/613 627/199/596 600/200/592
f 603/201/614 629/150/616 626/153/619 594/202/615
f 601/203/620 630/142/610 625/145/613 596/198/621
f 610/135/602 633/204/604 624/164/607 591/136/603
f 612/131/608 634/130/598 623/133/601 589/132/609
f 600/127/592 627/126/596 622/129/571 585/128/584
f 598/121/595 628/120/593 621/123/579 587/122/576
f 639/205/639 657/109/588 617/115/591 578/206/640
f 640/207/586 658/109/587 620/112/582 581/208/581
f 587/209/576 621/103/579 620/106/582 583/210/577
f 585/211/584 622/95/571 618/98/574 577/212/585
f 577/212/585 618/98/574 658/213/587 640/214/586
f 582/215/638 619/216/637 657/109/588 639/205/639
f 582/188/638 639/187/639 656/167/622 616/172/626
f 580/186/590 637/187/589 655/167/629 614/168/633
f 606/169/634 652/170/575 654/134/575 609/131/599
f 608/217/627 651/218/583 653/219/583 611/139/605
f 614/168/633 655/167/629 652/170/575 606/169/634
f 616/172/626 656/167/622 651/170/583 608/173/627
f 590/132/600 643/137/575 650/146/575 602/154/611
f 592/136/606 644/137/583 649/146/583 604/147/617
f 595/220/618 646/221/583 648/222/583 599/121/594
f 593/155/612 645/149/575 647/116/575 597/117/597
f 604/147/617 649/146/583 646/149/583 595/148/618
f 602/154/611 650/146/575 645/149/575 593/155/612
f 611/135/605 653/134/583 644/137/583 592/136/606
f 609/131/599 654/134/575 643/137/575 590/132/600
f 597/127/597 647/223/575 642/224/575 586/128/572
f 599/121/594 648/222/583 641/225/583 588/122/580
f 619/216/637 584/226/636 637/113/589 657/109/588
f 618/98/574 579/97/573 638/227/578 658/213/587
f 588/228/580 641/229/583 640/230/586 581/231/581
f 586/232/572 642/233/575 638/234/578 579/235/573
usemtl Material.007
f 576/236/583 574/237/583 571/238/583 575/239/583
f 573/240/583 576/241/583 575/242/583 572/243/583
